
484,340432440731 475,598769000431 457,737919633816 424,707975433304 340,4970859566 251,032226228117 326,910117038283 415,057573320125 447,483410479445 469,146831278073 482,764676443194 470,711847666465 447,373160022508 406,003036676181 339,276136924171 226,367936762782 339,276136924171 410,649474907275 450,295323929851 476,093165866094 
475,598769000431 474,466170868148 457,315248936306 425,683034826823 344,196284503814 257,906252876613 331,043702483657 416,264498145448 447,302261734977 468,029564359889 478,24503954712 465,667185665479 441,101637804996 398,441034754356 328,774746528071 210,365990836 328,774746528071 402,855671013673 444,125677801986 470,839998493266 
457,737919633816 457,315248936306 445,77084914625 417,044908396769 341,631269672465 262,656647387838 329,471440255681 408,191768153181 436,523913916651 455,082479538053 464,254165325954 451,276209497455 425,88643628211 382,541725216403 311,20521935626 190,155084449076 311,20521935626 386,651672476548 428,988596589098 456,13497625279 
424,707975433304 425,683034826823 417,044908396769 396,89742479373 333,205873877728 268,857828428611 322,996858976279 389,133357798333 412,291747637785 423,709240066677 430,465023717668 417,137401601275 390,882286747349 347,303537655158 275,015514376926 153,087387287039 275,015514376926 350,850460624956 394,025612080259 421,376011197268 
340,4970859566 344,196284503814 341,631269672465 333,205873877728 299,576625539484 271,237212882705 294,055607376155 328,128926474156 339,260525011643 342,594408945544 344,383803693807 330,662974048858 303,678041219753 261,484690913615 190,566975563504 72,7377186508106 190,566975563503 263,791502434041 306,778779914519 333,494444126711 
251,032226228117 257,906252876613 262,656647387838 268,857828428611 271,237212882705 293,848433558144 271,835721035004 266,971066306492 262,94415294562 256,250336082201 252,129668812742 236,912734780504 208,041652307468 165,874315690785 94,9768526440358 -19,5830403959305 94,9768526440357 166,912825249227 211,214573277815 238,199749074597 
326,910117038283 331,043702483657 329,471440255681 322,996858976279 294,055607376155 271,835721035004 289,268439606937 318,360911698297 327,482689845687 329,482159187918 330,465956729526 316,651765353539 289,536889599622 247,547391065609 176,932627744823 59,8126225963926 176,932627744823 249,660804854028 292,633581936203 319,258261648698 
415,057573320125 416,264498145448 408,191768153181 389,133357798333 328,128926474156 266,971066306492 318,360911698297 381,639556970985 403,67716320753 414,348614793678 420,648228662318 407,382926322098 381,167406804427 338,032694107171 266,249781204608 145,227092594073 266,249781204607 341,447271735773 384,285852638662 411,474914583605 
447,483410479445 447,302261734977 436,523913916651 412,291747637785 339,260525011643 262,94415294562 327,482689845687 403,67716320753 430,950200662816 445,211200826756 453,791227392344 440,826195995347 415,417371196757 372,301942978878 301,147775520751 180,500944602104 301,147775520751 376,251023114796 418,504770552128 445,51140929114 
469,146831278073 468,029564359889 455,082479538053 423,709240066677 342,594408945544 256,250336082201 329,482159187918 414,348614793678 445,211200826756 465,790993752061 475,954322520828 463,464458502945 438,921426448831 396,334828172811 326,652020622197 207,997300607981 326,652020622197 400,698320260765 441,957225852349 468,59479274888 
482,764676443194 478,24503954712 464,254165325954 430,465023717668 344,383803693807 252,129668812742 330,465956729526 420,648228662318 453,791227392344 475,954322520828 489,795823319035 477,706476450619 454,100146156763 412,206227989143 344,383803693807 229,017843592201 344,383803693807 416,886911098196 457,081095452511 483,157689914728 
470,711847666465 465,667185665479 451,276209497455 417,137401601275 330,662974048858 236,912734780504 316,651765353539 407,382926322098 440,826195995347 463,464458502945 477,706476450619 468,624164372505 446,183225746818 405,990952835239 340,980928234833 230,013431851478 340,980928234833 410,641725914336 449,016121555772 474,110262986881 
447,373160022508 441,101637804996 425,88643628211 390,882286747349 303,678041219753 208,041652307468 289,536889599622 381,167406804427 415,417371196757 438,921426448831 454,100146156763 446,183225746818 430,155065823114 394,368743476434 336,980194316485 238,651467641158 336,980194316484 399,032724044489 429,324954249622 451,538765321427 
406,003036676181 398,441034754356 382,541725216403 347,303537655158 261,484690913615 165,874315690785 247,547391065609 338,032694107171 372,301942978878 396,334828172811 412,206227989143 405,990952835239 394,368743476434 368,348090485543 322,507026717701 243,888977369071 322,507026717701 372,921134558113 393,373752249443 411,148877273748 
339,276136924171 328,774746528071 311,20521935626 275,015514376926 190,566975563504 94,9768526440358 176,932627744823 266,249781204608 301,147775520751 326,652020622197 344,383803693807 340,980928234833 336,980194316485 322,507026717701 299,576625539484 261,704163839521 299,576625539484 327,151088748783 335,769911047934 345,948152092777 
226,367936762782 210,365990836 190,155084449076 153,087387287039 72,7377186508106 -19,5830403959305 59,8126225963926 145,227092594073 180,500944602104 207,997300607981 229,017843592201 230,013431851478 238,651467641158 243,888977369071 261,704163839521 299,499501212841 261,704163839521 248,75098995037 237,322116974589 234,731466845988 
339,276136924171 328,774746528071 311,20521935626 275,015514376926 190,566975563503 94,9768526440357 176,932627744823 266,249781204607 301,147775520751 326,652020622197 344,383803693807 340,980928234833 336,980194316484 322,507026717701 299,576625539484 261,704163839521 299,576625539484 327,151088748783 335,769911047933 345,948152092777 
410,649474907275 402,855671013673 386,651672476548 350,850460624956 263,791502434041 166,912825249227 249,660804854028 341,447271735773 376,251023114796 400,698320260765 416,886911098196 410,641725914336 399,032724044489 372,921134558113 327,151088748783 248,75098995037 327,151088748783 377,581136018665 398,031750199741 415,882323363108 
450,295323929851 444,125677801986 428,988596589098 394,025612080259 306,778779914519 211,214573277815 292,633581936203 384,285852638662 418,504770552128 441,957225852349 457,081095452511 449,016121555772 429,324954249622 393,373752249443 335,769911047934 237,322116974589 335,769911047933 398,031750199741 431,857659219597 454,388916615238 
476,093165866094 470,839998493266 456,13497625279 421,376011197268 333,494444126711 238,199749074597 319,258261648698 411,474914583605 445,51140929114 468,59479274888 483,157689914728 474,110262986881 451,538765321427 411,148877273748 345,948152092777 234,731466845988 345,948152092777 415,882323363108 454,388916615238 479,607660340862 